<svg xmlns="http://www.w3.org/2000/svg" width="42.098" height="46.782" viewBox="0 0 42.098 46.782">
  <g id="Group_8" data-name="Group 8" transform="translate(-254.402 -82.218)">
    <g id="Component_6_1" data-name="Component 6 – 1" transform="translate(254.402 82.218)">
      <g id="newspaper">
        <g id="Group_2" data-name="Group 2">
          <path id="Path_1005" data-name="Path 1005" d="M30.563,7.989a.845.845,0,0,0-.813.869V31.932a4.286,4.286,0,0,1-4.132,4.419H5.758a4.286,4.286,0,0,1-4.132-4.419V7.04h23.8V29.426a.815.815,0,1,0,1.626,0V6.17a.845.845,0,0,0-.813-.869H.813A.845.845,0,0,0,0,6.17V31.925a5.972,5.972,0,0,0,5.758,6.158H25.611a5.972,5.972,0,0,0,5.758-6.158V8.858A.835.835,0,0,0,30.563,7.989Z" transform="translate(0 -5.301)" fill="#43342c"/>
          <path id="Path_1006" data-name="Path 1006" d="M75.521,76.24a.869.869,0,0,0,0-1.739H56.569a.869.869,0,1,0,0,1.739Z" transform="translate(-51.665 -69.488)" fill="#43342c"/>
          <path id="Path_1007" data-name="Path 1007" d="M75.521,319.1H56.569a.869.869,0,1,0,0,1.739H75.514a.869.869,0,0,0,.007-1.739Z" transform="translate(-51.665 -296.367)" fill="#43342c"/>
          <path id="Path_1008" data-name="Path 1008" d="M114.015,380.6H98.069a.869.869,0,0,0,0,1.739h15.945a.869.869,0,0,0,0-1.739Z" transform="translate(-91.126 -353.412)" fill="#43342c"/>
          <path id="Path_1009" data-name="Path 1009" d="M51.7,129.27v9.4a.872.872,0,0,0,.869.869h9.44a.872.872,0,0,0,.869-.869v-9.4a.872.872,0,0,0-.869-.869h-9.44A.872.872,0,0,0,51.7,129.27Zm1.739.869h7.7V137.8h-7.7Z" transform="translate(-47.955 -119.483)" fill="#43342c"/>
          <path id="Path_1010" data-name="Path 1010" d="M244.521,140.4h-6.252a.869.869,0,0,0,0,1.739h6.252a.869.869,0,0,0,0-1.739Z" transform="translate(-221.669 -130.613)" fill="#43342c"/>
          <path id="Path_1011" data-name="Path 1011" d="M244.521,194.6h-6.252a.869.869,0,0,0,0,1.739h6.252a.869.869,0,0,0,0-1.739Z" transform="translate(-221.669 -180.887)" fill="#43342c"/>
          <path id="Path_1012" data-name="Path 1012" d="M245.391,253.07a.872.872,0,0,0-.869-.869h-6.252a.869.869,0,0,0,0,1.739h6.252A.867.867,0,0,0,245.391,253.07Z" transform="translate(-221.669 -234.314)" fill="#43342c"/>
        </g>
      </g>
      <text id="post" transform="translate(22.369 43.782)" fill="#43342c" font-size="12" font-family="ArialMT, Arial" letter-spacing="0.045em"><tspan x="-12.151" y="0">post</tspan></text>
    </g>
    <g id="Component_80_3" data-name="Component 80 – 3" transform="translate(286.5 105.5)">
      <line id="Line_13" data-name="Line 13" x2="10" transform="translate(0 5)" fill="none" stroke="#43342c" stroke-width="2"/>
      <line id="Line_14" data-name="Line 14" y1="10" transform="translate(5)" fill="none" stroke="#43342c" stroke-width="2"/>
    </g>
  </g>
</svg>
